Q1
…
heightvalid to height

screen12

q4008

q4009 (See questionaire BACKPAIN_EXTRACT.pdf in ExamResources)

df <- df %>% rename(wealthq = quintile_c,
                    height = heightvalid,
                    disabIndex = screen12,
                    bP30 = q4008)
select(df, wealthq, height, disabIndex, bP30)

## # A tibble: 34,122 x 4
##           wealthq height disabIndex      bP30
##         <dbl+lbl>  <dbl>      <dbl> <dbl+lbl>
##  1 3 [Q3]           1.65      13.9     2 [no]
##  2 4 [Q4]           1.53       0       2 [no]
##  3 5 [Q5 richest]   1.52       2.78    2 [no]
##  4 4 [Q4]           1.73       8.33    2 [no]
##  5 1 [Q1 poorest]   1.58      38.9     2 [no]
##  6 4 [Q4]           1.54       2.78    2 [no]
##  7 3 [Q3]           1.65      38.9     2 [no]
##  8 5 [Q5 richest]   1.5       47.2     2 [no]
##  9 4 [Q4]           1.52       0       2 [no]
## 10 5 [Q5 richest]   1.65       0       2 [no]
## # ... with 34,112 more rows
…
